{
  "$schema": "http://json-schema.org/draft-07/schema",
  "$id": "http://example.com/course.json",
  "type": "object",
  "title": "Course example",
  "description": "JSON of the course object",
  "examples": [
    {
      "id": "4424a04f-d762-425a-ab0f-9cffe5568582",
      "name": "windsurfen"
    }
  ],
  "required": [
    "id",
    "name"
  ],
  "properties": {
    "id": {
      "$id": "#/properties/id",
      "type": "string",
      "title": "ID",
      "description": "The ID of the course",
      "default": "",
      "examples": [
        "4424a04f-d762-425a-ab0f-9cffe5568582"
      ]
    },
    "name": {
      "$id": "#/properties/name",
      "type": "string",
      "title": "Name",
      "description": "The name of the course",
      "examples": [
        "windsurfen"
      ]
    }
  },
  "additionalProperties": true
}
